ARM GAS  C:\Users\Zoltan\AppData\Local\Temp\ccBH5naN.s 			page 1


   1              		.syntax unified
   2              		.cpu cortex-m0
   3              		.fpu softvfp
   4              		.eabi_attribute 20, 1
   5              		.eabi_attribute 21, 1
   6              		.eabi_attribute 23, 3
   7              		.eabi_attribute 24, 1
   8              		.eabi_attribute 25, 1
   9              		.eabi_attribute 26, 1
  10              		.eabi_attribute 30, 4
  11              		.eabi_attribute 34, 0
  12              		.eabi_attribute 18, 4
  13              		.thumb
  14              		.syntax unified
  15              		.file	"ADC_SAR_12Bit_INT.c"
  16              		.text
  17              	.Ltext0:
  18              		.cfi_sections	.debug_frame
  19              		.section	.text.ADC_SAR_12Bit_ISR,"ax",%progbits
  20              		.align	1
  21              		.global	ADC_SAR_12Bit_ISR
  22              		.code	16
  23              		.thumb_func
  24              		.type	ADC_SAR_12Bit_ISR, %function
  25              	ADC_SAR_12Bit_ISR:
  26              	.LFB2:
  27              		.file 1 "Generated_Source\\PSoC4\\ADC_SAR_12Bit_INT.c"
   1:Generated_Source\PSoC4/ADC_SAR_12Bit_INT.c **** /*******************************************************************************
   2:Generated_Source\PSoC4/ADC_SAR_12Bit_INT.c **** * File Name: ADC_SAR_12Bit_INT.c
   3:Generated_Source\PSoC4/ADC_SAR_12Bit_INT.c **** * Version 2.40
   4:Generated_Source\PSoC4/ADC_SAR_12Bit_INT.c **** *
   5:Generated_Source\PSoC4/ADC_SAR_12Bit_INT.c **** *  Description:
   6:Generated_Source\PSoC4/ADC_SAR_12Bit_INT.c **** *    This file contains the code that operates during the ADC_SAR interrupt
   7:Generated_Source\PSoC4/ADC_SAR_12Bit_INT.c **** *    service routine.
   8:Generated_Source\PSoC4/ADC_SAR_12Bit_INT.c **** *
   9:Generated_Source\PSoC4/ADC_SAR_12Bit_INT.c **** *   Note:
  10:Generated_Source\PSoC4/ADC_SAR_12Bit_INT.c **** *
  11:Generated_Source\PSoC4/ADC_SAR_12Bit_INT.c **** ********************************************************************************
  12:Generated_Source\PSoC4/ADC_SAR_12Bit_INT.c **** * Copyright 2008-2015, Cypress Semiconductor Corporation.  All rights reserved.
  13:Generated_Source\PSoC4/ADC_SAR_12Bit_INT.c **** * You may use this file only in accordance with the license, terms, conditions,
  14:Generated_Source\PSoC4/ADC_SAR_12Bit_INT.c **** * disclaimers, and limitations in the end user license agreement accompanying
  15:Generated_Source\PSoC4/ADC_SAR_12Bit_INT.c **** * the software package with which this file was provided.
  16:Generated_Source\PSoC4/ADC_SAR_12Bit_INT.c **** *******************************************************************************/
  17:Generated_Source\PSoC4/ADC_SAR_12Bit_INT.c **** 
  18:Generated_Source\PSoC4/ADC_SAR_12Bit_INT.c **** #include "ADC_SAR_12Bit.h"
  19:Generated_Source\PSoC4/ADC_SAR_12Bit_INT.c **** #include "cyapicallbacks.h"
  20:Generated_Source\PSoC4/ADC_SAR_12Bit_INT.c **** 
  21:Generated_Source\PSoC4/ADC_SAR_12Bit_INT.c **** 
  22:Generated_Source\PSoC4/ADC_SAR_12Bit_INT.c **** /******************************************************************************
  23:Generated_Source\PSoC4/ADC_SAR_12Bit_INT.c **** * Custom Declarations and Variables
  24:Generated_Source\PSoC4/ADC_SAR_12Bit_INT.c **** * - add user inlcude files, prototypes and variables between the following
  25:Generated_Source\PSoC4/ADC_SAR_12Bit_INT.c **** *   #START and #END tags
  26:Generated_Source\PSoC4/ADC_SAR_12Bit_INT.c **** ******************************************************************************/
  27:Generated_Source\PSoC4/ADC_SAR_12Bit_INT.c **** /* `#START ADC_SYS_VAR`  */
  28:Generated_Source\PSoC4/ADC_SAR_12Bit_INT.c **** 
  29:Generated_Source\PSoC4/ADC_SAR_12Bit_INT.c **** /* `#END`  */
  30:Generated_Source\PSoC4/ADC_SAR_12Bit_INT.c **** 
ARM GAS  C:\Users\Zoltan\AppData\Local\Temp\ccBH5naN.s 			page 2


  31:Generated_Source\PSoC4/ADC_SAR_12Bit_INT.c **** #if(ADC_SAR_12Bit_IRQ_REMOVE == 0u)
  32:Generated_Source\PSoC4/ADC_SAR_12Bit_INT.c **** 
  33:Generated_Source\PSoC4/ADC_SAR_12Bit_INT.c **** 
  34:Generated_Source\PSoC4/ADC_SAR_12Bit_INT.c ****     /******************************************************************************
  35:Generated_Source\PSoC4/ADC_SAR_12Bit_INT.c ****     * Function Name: ADC_SAR_12Bit_ISR
  36:Generated_Source\PSoC4/ADC_SAR_12Bit_INT.c ****     *******************************************************************************
  37:Generated_Source\PSoC4/ADC_SAR_12Bit_INT.c ****     *
  38:Generated_Source\PSoC4/ADC_SAR_12Bit_INT.c ****     * Summary:
  39:Generated_Source\PSoC4/ADC_SAR_12Bit_INT.c ****     *  Handle Interrupt Service Routine.
  40:Generated_Source\PSoC4/ADC_SAR_12Bit_INT.c ****     *
  41:Generated_Source\PSoC4/ADC_SAR_12Bit_INT.c ****     * Parameters:
  42:Generated_Source\PSoC4/ADC_SAR_12Bit_INT.c ****     *  None.
  43:Generated_Source\PSoC4/ADC_SAR_12Bit_INT.c ****     *
  44:Generated_Source\PSoC4/ADC_SAR_12Bit_INT.c ****     * Return:
  45:Generated_Source\PSoC4/ADC_SAR_12Bit_INT.c ****     *  None.
  46:Generated_Source\PSoC4/ADC_SAR_12Bit_INT.c ****     *
  47:Generated_Source\PSoC4/ADC_SAR_12Bit_INT.c ****     * Reentrant:
  48:Generated_Source\PSoC4/ADC_SAR_12Bit_INT.c ****     *  No.
  49:Generated_Source\PSoC4/ADC_SAR_12Bit_INT.c ****     *
  50:Generated_Source\PSoC4/ADC_SAR_12Bit_INT.c ****     ******************************************************************************/
  51:Generated_Source\PSoC4/ADC_SAR_12Bit_INT.c ****     CY_ISR( ADC_SAR_12Bit_ISR )
  52:Generated_Source\PSoC4/ADC_SAR_12Bit_INT.c ****     {
  28              		.loc 1 52 0
  29              		.cfi_startproc
  30              		@ args = 0, pretend = 0, frame = 0
  31              		@ frame_needed = 0, uses_anonymous_args = 0
  32              		@ link register save eliminated.
  53:Generated_Source\PSoC4/ADC_SAR_12Bit_INT.c ****         uint32 intr_status;
  54:Generated_Source\PSoC4/ADC_SAR_12Bit_INT.c **** 
  55:Generated_Source\PSoC4/ADC_SAR_12Bit_INT.c ****         /* Read interrupt status register */
  56:Generated_Source\PSoC4/ADC_SAR_12Bit_INT.c ****         intr_status = ADC_SAR_12Bit_SAR_INTR_REG;
  33              		.loc 1 56 0
  34 0000 014B     		ldr	r3, .L2
  57:Generated_Source\PSoC4/ADC_SAR_12Bit_INT.c **** 
  58:Generated_Source\PSoC4/ADC_SAR_12Bit_INT.c ****         #ifdef ADC_SAR_12Bit_ISR_INTERRUPT_CALLBACK
  59:Generated_Source\PSoC4/ADC_SAR_12Bit_INT.c ****             ADC_SAR_12Bit_ISR_InterruptCallback();
  60:Generated_Source\PSoC4/ADC_SAR_12Bit_INT.c ****         #endif /* ADC_SAR_12Bit_ISR_INTERRUPT_CALLBACK */
  61:Generated_Source\PSoC4/ADC_SAR_12Bit_INT.c **** 
  62:Generated_Source\PSoC4/ADC_SAR_12Bit_INT.c **** 
  63:Generated_Source\PSoC4/ADC_SAR_12Bit_INT.c ****         /************************************************************************
  64:Generated_Source\PSoC4/ADC_SAR_12Bit_INT.c ****         *  Custom Code
  65:Generated_Source\PSoC4/ADC_SAR_12Bit_INT.c ****         *  - add user ISR code between the following #START and #END tags
  66:Generated_Source\PSoC4/ADC_SAR_12Bit_INT.c ****         *************************************************************************/
  67:Generated_Source\PSoC4/ADC_SAR_12Bit_INT.c ****         /* `#START MAIN_ADC_ISR`  */
  68:Generated_Source\PSoC4/ADC_SAR_12Bit_INT.c **** 
  69:Generated_Source\PSoC4/ADC_SAR_12Bit_INT.c ****         /* `#END`  */
  70:Generated_Source\PSoC4/ADC_SAR_12Bit_INT.c ****         
  71:Generated_Source\PSoC4/ADC_SAR_12Bit_INT.c ****         /* Clear handled interrupt */
  72:Generated_Source\PSoC4/ADC_SAR_12Bit_INT.c ****         ADC_SAR_12Bit_SAR_INTR_REG = intr_status;
  73:Generated_Source\PSoC4/ADC_SAR_12Bit_INT.c ****     }
  35              		.loc 1 73 0
  36              		@ sp needed
  56:Generated_Source\PSoC4/ADC_SAR_12Bit_INT.c **** 
  37              		.loc 1 56 0
  38 0002 1A68     		ldr	r2, [r3]
  39              	.LVL0:
  72:Generated_Source\PSoC4/ADC_SAR_12Bit_INT.c ****     }
ARM GAS  C:\Users\Zoltan\AppData\Local\Temp\ccBH5naN.s 			page 3


  40              		.loc 1 72 0
  41 0004 1A60     		str	r2, [r3]
  42              		.loc 1 73 0
  43 0006 7047     		bx	lr
  44              	.L3:
  45              		.align	2
  46              	.L2:
  47 0008 10023A40 		.word	1077543440
  48              		.cfi_endproc
  49              	.LFE2:
  50              		.size	ADC_SAR_12Bit_ISR, .-ADC_SAR_12Bit_ISR
  51              		.text
  52              	.Letext0:
  53              		.file 2 "Generated_Source\\PSoC4\\cytypes.h"
  54              		.section	.debug_info,"",%progbits
  55              	.Ldebug_info0:
  56 0000 C7000000 		.4byte	0xc7
  57 0004 0400     		.2byte	0x4
  58 0006 00000000 		.4byte	.Ldebug_abbrev0
  59 000a 04       		.byte	0x4
  60 000b 01       		.uleb128 0x1
  61 000c 22000000 		.4byte	.LASF16
  62 0010 0C       		.byte	0xc
  63 0011 A8010000 		.4byte	.LASF17
  64 0015 D4000000 		.4byte	.LASF18
  65 0019 00000000 		.4byte	.Ldebug_ranges0+0
  66 001d 00000000 		.4byte	0
  67 0021 00000000 		.4byte	.Ldebug_line0
  68 0025 02       		.uleb128 0x2
  69 0026 01       		.byte	0x1
  70 0027 06       		.byte	0x6
  71 0028 9C010000 		.4byte	.LASF0
  72 002c 02       		.uleb128 0x2
  73 002d 01       		.byte	0x1
  74 002e 08       		.byte	0x8
  75 002f 60010000 		.4byte	.LASF1
  76 0033 02       		.uleb128 0x2
  77 0034 02       		.byte	0x2
  78 0035 05       		.byte	0x5
  79 0036 DF010000 		.4byte	.LASF2
  80 003a 02       		.uleb128 0x2
  81 003b 02       		.byte	0x2
  82 003c 07       		.byte	0x7
  83 003d 89010000 		.4byte	.LASF3
  84 0041 02       		.uleb128 0x2
  85 0042 04       		.byte	0x4
  86 0043 05       		.byte	0x5
  87 0044 73010000 		.4byte	.LASF4
  88 0048 02       		.uleb128 0x2
  89 0049 04       		.byte	0x4
  90 004a 07       		.byte	0x7
  91 004b C2000000 		.4byte	.LASF5
  92 004f 02       		.uleb128 0x2
  93 0050 08       		.byte	0x8
  94 0051 05       		.byte	0x5
  95 0052 00000000 		.4byte	.LASF6
  96 0056 02       		.uleb128 0x2
ARM GAS  C:\Users\Zoltan\AppData\Local\Temp\ccBH5naN.s 			page 4


  97 0057 08       		.byte	0x8
  98 0058 07       		.byte	0x7
  99 0059 37010000 		.4byte	.LASF7
 100 005d 03       		.uleb128 0x3
 101 005e 04       		.byte	0x4
 102 005f 05       		.byte	0x5
 103 0060 696E7400 		.ascii	"int\000"
 104 0064 02       		.uleb128 0x2
 105 0065 04       		.byte	0x4
 106 0066 07       		.byte	0x7
 107 0067 15000000 		.4byte	.LASF8
 108 006b 04       		.uleb128 0x4
 109 006c 0E000000 		.4byte	.LASF12
 110 0070 02       		.byte	0x2
 111 0071 BB01     		.2byte	0x1bb
 112 0073 48000000 		.4byte	0x48
 113 0077 02       		.uleb128 0x2
 114 0078 04       		.byte	0x4
 115 0079 04       		.byte	0x4
 116 007a 4E010000 		.4byte	.LASF9
 117 007e 02       		.uleb128 0x2
 118 007f 08       		.byte	0x8
 119 0080 04       		.byte	0x4
 120 0081 7C010000 		.4byte	.LASF10
 121 0085 02       		.uleb128 0x2
 122 0086 01       		.byte	0x1
 123 0087 08       		.byte	0x8
 124 0088 6E010000 		.4byte	.LASF11
 125 008c 04       		.uleb128 0x4
 126 008d 83010000 		.4byte	.LASF13
 127 0091 02       		.byte	0x2
 128 0092 6502     		.2byte	0x265
 129 0094 98000000 		.4byte	0x98
 130 0098 05       		.uleb128 0x5
 131 0099 6B000000 		.4byte	0x6b
 132 009d 02       		.uleb128 0x2
 133 009e 08       		.byte	0x8
 134 009f 04       		.byte	0x4
 135 00a0 D3010000 		.4byte	.LASF14
 136 00a4 02       		.uleb128 0x2
 137 00a5 04       		.byte	0x4
 138 00a6 07       		.byte	0x7
 139 00a7 E9010000 		.4byte	.LASF15
 140 00ab 06       		.uleb128 0x6
 141 00ac B0000000 		.4byte	.LASF19
 142 00b0 01       		.byte	0x1
 143 00b1 33       		.byte	0x33
 144 00b2 00000000 		.4byte	.LFB2
 145 00b6 0C000000 		.4byte	.LFE2-.LFB2
 146 00ba 01       		.uleb128 0x1
 147 00bb 9C       		.byte	0x9c
 148 00bc 07       		.uleb128 0x7
 149 00bd 54010000 		.4byte	.LASF20
 150 00c1 01       		.byte	0x1
 151 00c2 35       		.byte	0x35
 152 00c3 6B000000 		.4byte	0x6b
 153 00c7 01       		.uleb128 0x1
ARM GAS  C:\Users\Zoltan\AppData\Local\Temp\ccBH5naN.s 			page 5


 154 00c8 52       		.byte	0x52
 155 00c9 00       		.byte	0
 156 00ca 00       		.byte	0
 157              		.section	.debug_abbrev,"",%progbits
 158              	.Ldebug_abbrev0:
 159 0000 01       		.uleb128 0x1
 160 0001 11       		.uleb128 0x11
 161 0002 01       		.byte	0x1
 162 0003 25       		.uleb128 0x25
 163 0004 0E       		.uleb128 0xe
 164 0005 13       		.uleb128 0x13
 165 0006 0B       		.uleb128 0xb
 166 0007 03       		.uleb128 0x3
 167 0008 0E       		.uleb128 0xe
 168 0009 1B       		.uleb128 0x1b
 169 000a 0E       		.uleb128 0xe
 170 000b 55       		.uleb128 0x55
 171 000c 17       		.uleb128 0x17
 172 000d 11       		.uleb128 0x11
 173 000e 01       		.uleb128 0x1
 174 000f 10       		.uleb128 0x10
 175 0010 17       		.uleb128 0x17
 176 0011 00       		.byte	0
 177 0012 00       		.byte	0
 178 0013 02       		.uleb128 0x2
 179 0014 24       		.uleb128 0x24
 180 0015 00       		.byte	0
 181 0016 0B       		.uleb128 0xb
 182 0017 0B       		.uleb128 0xb
 183 0018 3E       		.uleb128 0x3e
 184 0019 0B       		.uleb128 0xb
 185 001a 03       		.uleb128 0x3
 186 001b 0E       		.uleb128 0xe
 187 001c 00       		.byte	0
 188 001d 00       		.byte	0
 189 001e 03       		.uleb128 0x3
 190 001f 24       		.uleb128 0x24
 191 0020 00       		.byte	0
 192 0021 0B       		.uleb128 0xb
 193 0022 0B       		.uleb128 0xb
 194 0023 3E       		.uleb128 0x3e
 195 0024 0B       		.uleb128 0xb
 196 0025 03       		.uleb128 0x3
 197 0026 08       		.uleb128 0x8
 198 0027 00       		.byte	0
 199 0028 00       		.byte	0
 200 0029 04       		.uleb128 0x4
 201 002a 16       		.uleb128 0x16
 202 002b 00       		.byte	0
 203 002c 03       		.uleb128 0x3
 204 002d 0E       		.uleb128 0xe
 205 002e 3A       		.uleb128 0x3a
 206 002f 0B       		.uleb128 0xb
 207 0030 3B       		.uleb128 0x3b
 208 0031 05       		.uleb128 0x5
 209 0032 49       		.uleb128 0x49
 210 0033 13       		.uleb128 0x13
ARM GAS  C:\Users\Zoltan\AppData\Local\Temp\ccBH5naN.s 			page 6


 211 0034 00       		.byte	0
 212 0035 00       		.byte	0
 213 0036 05       		.uleb128 0x5
 214 0037 35       		.uleb128 0x35
 215 0038 00       		.byte	0
 216 0039 49       		.uleb128 0x49
 217 003a 13       		.uleb128 0x13
 218 003b 00       		.byte	0
 219 003c 00       		.byte	0
 220 003d 06       		.uleb128 0x6
 221 003e 2E       		.uleb128 0x2e
 222 003f 01       		.byte	0x1
 223 0040 3F       		.uleb128 0x3f
 224 0041 19       		.uleb128 0x19
 225 0042 03       		.uleb128 0x3
 226 0043 0E       		.uleb128 0xe
 227 0044 3A       		.uleb128 0x3a
 228 0045 0B       		.uleb128 0xb
 229 0046 3B       		.uleb128 0x3b
 230 0047 0B       		.uleb128 0xb
 231 0048 27       		.uleb128 0x27
 232 0049 19       		.uleb128 0x19
 233 004a 11       		.uleb128 0x11
 234 004b 01       		.uleb128 0x1
 235 004c 12       		.uleb128 0x12
 236 004d 06       		.uleb128 0x6
 237 004e 40       		.uleb128 0x40
 238 004f 18       		.uleb128 0x18
 239 0050 9742     		.uleb128 0x2117
 240 0052 19       		.uleb128 0x19
 241 0053 00       		.byte	0
 242 0054 00       		.byte	0
 243 0055 07       		.uleb128 0x7
 244 0056 34       		.uleb128 0x34
 245 0057 00       		.byte	0
 246 0058 03       		.uleb128 0x3
 247 0059 0E       		.uleb128 0xe
 248 005a 3A       		.uleb128 0x3a
 249 005b 0B       		.uleb128 0xb
 250 005c 3B       		.uleb128 0x3b
 251 005d 0B       		.uleb128 0xb
 252 005e 49       		.uleb128 0x49
 253 005f 13       		.uleb128 0x13
 254 0060 02       		.uleb128 0x2
 255 0061 18       		.uleb128 0x18
 256 0062 00       		.byte	0
 257 0063 00       		.byte	0
 258 0064 00       		.byte	0
 259              		.section	.debug_aranges,"",%progbits
 260 0000 1C000000 		.4byte	0x1c
 261 0004 0200     		.2byte	0x2
 262 0006 00000000 		.4byte	.Ldebug_info0
 263 000a 04       		.byte	0x4
 264 000b 00       		.byte	0
 265 000c 0000     		.2byte	0
 266 000e 0000     		.2byte	0
 267 0010 00000000 		.4byte	.LFB2
ARM GAS  C:\Users\Zoltan\AppData\Local\Temp\ccBH5naN.s 			page 7


 268 0014 0C000000 		.4byte	.LFE2-.LFB2
 269 0018 00000000 		.4byte	0
 270 001c 00000000 		.4byte	0
 271              		.section	.debug_ranges,"",%progbits
 272              	.Ldebug_ranges0:
 273 0000 00000000 		.4byte	.LFB2
 274 0004 0C000000 		.4byte	.LFE2
 275 0008 00000000 		.4byte	0
 276 000c 00000000 		.4byte	0
 277              		.section	.debug_line,"",%progbits
 278              	.Ldebug_line0:
 279 0000 6E000000 		.section	.debug_str,"MS",%progbits,1
 279      02004E00 
 279      00000201 
 279      FB0E0D00 
 279      01010101 
 280              	.LASF6:
 281 0000 6C6F6E67 		.ascii	"long long int\000"
 281      206C6F6E 
 281      6720696E 
 281      7400
 282              	.LASF12:
 283 000e 75696E74 		.ascii	"uint32\000"
 283      333200
 284              	.LASF8:
 285 0015 756E7369 		.ascii	"unsigned int\000"
 285      676E6564 
 285      20696E74 
 285      00
 286              	.LASF16:
 287 0022 474E5520 		.ascii	"GNU C11 5.4.1 20160609 (release) [ARM/embedded-5-br"
 287      43313120 
 287      352E342E 
 287      31203230 
 287      31363036 
 288 0055 616E6368 		.ascii	"anch revision 237715] -mcpu=cortex-m0 -mthumb -g -O"
 288      20726576 
 288      6973696F 
 288      6E203233 
 288      37373135 
 289 0088 73202D66 		.ascii	"s -ffunction-sections -ffat-lto-objects\000"
 289      66756E63 
 289      74696F6E 
 289      2D736563 
 289      74696F6E 
 290              	.LASF19:
 291 00b0 4144435F 		.ascii	"ADC_SAR_12Bit_ISR\000"
 291      5341525F 
 291      31324269 
 291      745F4953 
 291      5200
 292              	.LASF5:
 293 00c2 6C6F6E67 		.ascii	"long unsigned int\000"
 293      20756E73 
 293      69676E65 
 293      6420696E 
 293      7400
ARM GAS  C:\Users\Zoltan\AppData\Local\Temp\ccBH5naN.s 			page 8


 294              	.LASF18:
 295 00d4 433A5C55 		.ascii	"C:\\Users\\Zoltan\\Desktop\\Workspace_KWJ_01_7e.cyw"
 295      73657273 
 295      5C5A6F6C 
 295      74616E5C 
 295      4465736B 
 296 0103 726B2E41 		.ascii	"rk.Archive03\\Workspace_KWJ_01_6e\\KWJ_CO_01_6e.cyd"
 296      72636869 
 296      76653033 
 296      5C576F72 
 296      6B737061 
 297 0134 736E00   		.ascii	"sn\000"
 298              	.LASF7:
 299 0137 6C6F6E67 		.ascii	"long long unsigned int\000"
 299      206C6F6E 
 299      6720756E 
 299      7369676E 
 299      65642069 
 300              	.LASF9:
 301 014e 666C6F61 		.ascii	"float\000"
 301      7400
 302              	.LASF20:
 303 0154 696E7472 		.ascii	"intr_status\000"
 303      5F737461 
 303      74757300 
 304              	.LASF1:
 305 0160 756E7369 		.ascii	"unsigned char\000"
 305      676E6564 
 305      20636861 
 305      7200
 306              	.LASF11:
 307 016e 63686172 		.ascii	"char\000"
 307      00
 308              	.LASF4:
 309 0173 6C6F6E67 		.ascii	"long int\000"
 309      20696E74 
 309      00
 310              	.LASF10:
 311 017c 646F7562 		.ascii	"double\000"
 311      6C6500
 312              	.LASF13:
 313 0183 72656733 		.ascii	"reg32\000"
 313      3200
 314              	.LASF3:
 315 0189 73686F72 		.ascii	"short unsigned int\000"
 315      7420756E 
 315      7369676E 
 315      65642069 
 315      6E7400
 316              	.LASF0:
 317 019c 7369676E 		.ascii	"signed char\000"
 317      65642063 
 317      68617200 
 318              	.LASF17:
 319 01a8 47656E65 		.ascii	"Generated_Source\\PSoC4\\ADC_SAR_12Bit_INT.c\000"
 319      72617465 
 319      645F536F 
ARM GAS  C:\Users\Zoltan\AppData\Local\Temp\ccBH5naN.s 			page 9


 319      75726365 
 319      5C50536F 
 320              	.LASF14:
 321 01d3 6C6F6E67 		.ascii	"long double\000"
 321      20646F75 
 321      626C6500 
 322              	.LASF2:
 323 01df 73686F72 		.ascii	"short int\000"
 323      7420696E 
 323      7400
 324              	.LASF15:
 325 01e9 73697A65 		.ascii	"sizetype\000"
 325      74797065 
 325      00
 326              		.ident	"GCC: (GNU Tools for ARM Embedded Processors) 5.4.1 20160609 (release) [ARM/embedded-5-bran
