ARM GAS  C:\Users\Zoltan\AppData\Local\Temp\cc5MtfR0.s 			page 1


   1              		.syntax unified
   2              		.cpu cortex-m0
   3              		.fpu softvfp
   4              		.eabi_attribute 20, 1
   5              		.eabi_attribute 21, 1
   6              		.eabi_attribute 23, 3
   7              		.eabi_attribute 24, 1
   8              		.eabi_attribute 25, 1
   9              		.eabi_attribute 26, 1
  10              		.eabi_attribute 30, 4
  11              		.eabi_attribute 34, 0
  12              		.eabi_attribute 18, 4
  13              		.thumb
  14              		.syntax unified
  15              		.file	"AMux_1.c"
  16              		.text
  17              	.Ltext0:
  18              		.cfi_sections	.debug_frame
  19              		.section	.text.AMux_1_Start,"ax",%progbits
  20              		.align	1
  21              		.global	AMux_1_Start
  22              		.code	16
  23              		.thumb_func
  24              		.type	AMux_1_Start, %function
  25              	AMux_1_Start:
  26              	.LFB0:
  27              		.file 1 "Generated_Source\\PSoC4\\AMux_1.c"
   1:Generated_Source\PSoC4/AMux_1.c **** /*******************************************************************************
   2:Generated_Source\PSoC4/AMux_1.c **** * File Name: AMux_1.c
   3:Generated_Source\PSoC4/AMux_1.c **** * Version 1.80
   4:Generated_Source\PSoC4/AMux_1.c **** *
   5:Generated_Source\PSoC4/AMux_1.c **** *  Description:
   6:Generated_Source\PSoC4/AMux_1.c **** *    This file contains all functions required for the analog multiplexer
   7:Generated_Source\PSoC4/AMux_1.c **** *    AMux User Module.
   8:Generated_Source\PSoC4/AMux_1.c **** *
   9:Generated_Source\PSoC4/AMux_1.c **** *   Note:
  10:Generated_Source\PSoC4/AMux_1.c **** *
  11:Generated_Source\PSoC4/AMux_1.c **** *******************************************************************************
  12:Generated_Source\PSoC4/AMux_1.c **** * Copyright 2008-2010, Cypress Semiconductor Corporation.  All rights reserved.
  13:Generated_Source\PSoC4/AMux_1.c **** * You may use this file only in accordance with the license, terms, conditions, 
  14:Generated_Source\PSoC4/AMux_1.c **** * disclaimers, and limitations in the end user license agreement accompanying 
  15:Generated_Source\PSoC4/AMux_1.c **** * the software package with which this file was provided.
  16:Generated_Source\PSoC4/AMux_1.c **** ********************************************************************************/
  17:Generated_Source\PSoC4/AMux_1.c **** 
  18:Generated_Source\PSoC4/AMux_1.c **** #include "AMux_1.h"
  19:Generated_Source\PSoC4/AMux_1.c **** 
  20:Generated_Source\PSoC4/AMux_1.c **** static uint8 AMux_1_lastChannel = AMux_1_NULL_CHANNEL;
  21:Generated_Source\PSoC4/AMux_1.c **** 
  22:Generated_Source\PSoC4/AMux_1.c **** 
  23:Generated_Source\PSoC4/AMux_1.c **** /*******************************************************************************
  24:Generated_Source\PSoC4/AMux_1.c **** * Function Name: AMux_1_Start
  25:Generated_Source\PSoC4/AMux_1.c **** ********************************************************************************
  26:Generated_Source\PSoC4/AMux_1.c **** * Summary:
  27:Generated_Source\PSoC4/AMux_1.c **** *  Disconnect all channels.
  28:Generated_Source\PSoC4/AMux_1.c **** *
  29:Generated_Source\PSoC4/AMux_1.c **** * Parameters:
  30:Generated_Source\PSoC4/AMux_1.c **** *  void
ARM GAS  C:\Users\Zoltan\AppData\Local\Temp\cc5MtfR0.s 			page 2


  31:Generated_Source\PSoC4/AMux_1.c **** *
  32:Generated_Source\PSoC4/AMux_1.c **** * Return:
  33:Generated_Source\PSoC4/AMux_1.c **** *  void
  34:Generated_Source\PSoC4/AMux_1.c **** *
  35:Generated_Source\PSoC4/AMux_1.c **** *******************************************************************************/
  36:Generated_Source\PSoC4/AMux_1.c **** void AMux_1_Start(void) 
  37:Generated_Source\PSoC4/AMux_1.c **** {
  28              		.loc 1 37 0
  29              		.cfi_startproc
  30              		@ args = 0, pretend = 0, frame = 0
  31              		@ frame_needed = 0, uses_anonymous_args = 0
  32              	.LVL0:
  33 0000 10B5     		push	{r4, lr}
  34              		.cfi_def_cfa_offset 8
  35              		.cfi_offset 4, -8
  36              		.cfi_offset 14, -4
  38:Generated_Source\PSoC4/AMux_1.c ****     uint8 chan;
  39:Generated_Source\PSoC4/AMux_1.c **** 
  40:Generated_Source\PSoC4/AMux_1.c ****     for(chan = 0u; chan < AMux_1_CHANNELS ; chan++)
  41:Generated_Source\PSoC4/AMux_1.c ****     {
  42:Generated_Source\PSoC4/AMux_1.c **** #if (AMux_1_MUXTYPE == AMux_1_MUX_SINGLE)
  43:Generated_Source\PSoC4/AMux_1.c ****         AMux_1_Unset(chan);
  37              		.loc 1 43 0
  38 0002 0020     		movs	r0, #0
  39 0004 FFF7FEFF 		bl	AMux_1_Unset
  40              	.LVL1:
  44:Generated_Source\PSoC4/AMux_1.c **** #else
  45:Generated_Source\PSoC4/AMux_1.c ****         AMux_1_CYAMUXSIDE_A_Unset(chan);
  46:Generated_Source\PSoC4/AMux_1.c ****         AMux_1_CYAMUXSIDE_B_Unset(chan);
  47:Generated_Source\PSoC4/AMux_1.c **** #endif
  48:Generated_Source\PSoC4/AMux_1.c ****     }
  49:Generated_Source\PSoC4/AMux_1.c **** 
  50:Generated_Source\PSoC4/AMux_1.c ****     AMux_1_lastChannel = AMux_1_NULL_CHANNEL;
  41              		.loc 1 50 0
  42 0008 FF22     		movs	r2, #255
  43 000a 014B     		ldr	r3, .L2
  51:Generated_Source\PSoC4/AMux_1.c **** }
  44              		.loc 1 51 0
  45              		@ sp needed
  50:Generated_Source\PSoC4/AMux_1.c **** }
  46              		.loc 1 50 0
  47 000c 1A70     		strb	r2, [r3]
  48              		.loc 1 51 0
  49 000e 10BD     		pop	{r4, pc}
  50              	.L3:
  51              		.align	2
  52              	.L2:
  53 0010 00000000 		.word	.LANCHOR0
  54              		.cfi_endproc
  55              	.LFE0:
  56              		.size	AMux_1_Start, .-AMux_1_Start
  57              		.section	.text.AMux_1_FastSelect,"ax",%progbits
  58              		.align	1
  59              		.global	AMux_1_FastSelect
  60              		.code	16
  61              		.thumb_func
  62              		.type	AMux_1_FastSelect, %function
ARM GAS  C:\Users\Zoltan\AppData\Local\Temp\cc5MtfR0.s 			page 3


  63              	AMux_1_FastSelect:
  64              	.LFB1:
  52:Generated_Source\PSoC4/AMux_1.c **** 
  53:Generated_Source\PSoC4/AMux_1.c **** 
  54:Generated_Source\PSoC4/AMux_1.c **** #if (!AMux_1_ATMOSTONE)
  55:Generated_Source\PSoC4/AMux_1.c **** /*******************************************************************************
  56:Generated_Source\PSoC4/AMux_1.c **** * Function Name: AMux_1_Select
  57:Generated_Source\PSoC4/AMux_1.c **** ********************************************************************************
  58:Generated_Source\PSoC4/AMux_1.c **** * Summary:
  59:Generated_Source\PSoC4/AMux_1.c **** *  This functions first disconnects all channels then connects the given
  60:Generated_Source\PSoC4/AMux_1.c **** *  channel.
  61:Generated_Source\PSoC4/AMux_1.c **** *
  62:Generated_Source\PSoC4/AMux_1.c **** * Parameters:
  63:Generated_Source\PSoC4/AMux_1.c **** *  channel:  The channel to connect to the common terminal.
  64:Generated_Source\PSoC4/AMux_1.c **** *
  65:Generated_Source\PSoC4/AMux_1.c **** * Return:
  66:Generated_Source\PSoC4/AMux_1.c **** *  void
  67:Generated_Source\PSoC4/AMux_1.c **** *
  68:Generated_Source\PSoC4/AMux_1.c **** *******************************************************************************/
  69:Generated_Source\PSoC4/AMux_1.c **** void AMux_1_Select(uint8 channel) 
  70:Generated_Source\PSoC4/AMux_1.c **** {
  71:Generated_Source\PSoC4/AMux_1.c ****     AMux_1_DisconnectAll();        /* Disconnect all previous connections */
  72:Generated_Source\PSoC4/AMux_1.c ****     AMux_1_Connect(channel);       /* Make the given selection */
  73:Generated_Source\PSoC4/AMux_1.c ****     AMux_1_lastChannel = channel;  /* Update last channel */
  74:Generated_Source\PSoC4/AMux_1.c **** }
  75:Generated_Source\PSoC4/AMux_1.c **** #endif
  76:Generated_Source\PSoC4/AMux_1.c **** 
  77:Generated_Source\PSoC4/AMux_1.c **** 
  78:Generated_Source\PSoC4/AMux_1.c **** /*******************************************************************************
  79:Generated_Source\PSoC4/AMux_1.c **** * Function Name: AMux_1_FastSelect
  80:Generated_Source\PSoC4/AMux_1.c **** ********************************************************************************
  81:Generated_Source\PSoC4/AMux_1.c **** * Summary:
  82:Generated_Source\PSoC4/AMux_1.c **** *  This function first disconnects the last connection made with FastSelect or
  83:Generated_Source\PSoC4/AMux_1.c **** *  Select, then connects the given channel. The FastSelect function is similar
  84:Generated_Source\PSoC4/AMux_1.c **** *  to the Select function, except it is faster since it only disconnects the
  85:Generated_Source\PSoC4/AMux_1.c **** *  last channel selected rather than all channels.
  86:Generated_Source\PSoC4/AMux_1.c **** *
  87:Generated_Source\PSoC4/AMux_1.c **** * Parameters:
  88:Generated_Source\PSoC4/AMux_1.c **** *  channel:  The channel to connect to the common terminal.
  89:Generated_Source\PSoC4/AMux_1.c **** *
  90:Generated_Source\PSoC4/AMux_1.c **** * Return:
  91:Generated_Source\PSoC4/AMux_1.c **** *  void
  92:Generated_Source\PSoC4/AMux_1.c **** *
  93:Generated_Source\PSoC4/AMux_1.c **** *******************************************************************************/
  94:Generated_Source\PSoC4/AMux_1.c **** void AMux_1_FastSelect(uint8 channel) 
  95:Generated_Source\PSoC4/AMux_1.c **** {
  65              		.loc 1 95 0
  66              		.cfi_startproc
  67              		@ args = 0, pretend = 0, frame = 0
  68              		@ frame_needed = 0, uses_anonymous_args = 0
  69              	.LVL2:
  70 0000 70B5     		push	{r4, r5, r6, lr}
  71              		.cfi_def_cfa_offset 16
  72              		.cfi_offset 4, -16
  73              		.cfi_offset 5, -12
  74              		.cfi_offset 6, -8
  75              		.cfi_offset 14, -4
ARM GAS  C:\Users\Zoltan\AppData\Local\Temp\cc5MtfR0.s 			page 4


  96:Generated_Source\PSoC4/AMux_1.c ****     /* Disconnect the last valid channel */
  97:Generated_Source\PSoC4/AMux_1.c ****     if( AMux_1_lastChannel != AMux_1_NULL_CHANNEL)
  76              		.loc 1 97 0
  77 0002 064B     		ldr	r3, .L10
  95:Generated_Source\PSoC4/AMux_1.c ****     /* Disconnect the last valid channel */
  78              		.loc 1 95 0
  79 0004 0500     		movs	r5, r0
  80              		.loc 1 97 0
  81 0006 1878     		ldrb	r0, [r3]
  82              	.LVL3:
  83 0008 1C00     		movs	r4, r3
  84 000a FF28     		cmp	r0, #255
  85 000c 01D0     		beq	.L5
  98:Generated_Source\PSoC4/AMux_1.c ****     {
  99:Generated_Source\PSoC4/AMux_1.c ****         AMux_1_Disconnect(AMux_1_lastChannel);
  86              		.loc 1 99 0
  87 000e FFF7FEFF 		bl	AMux_1_Unset
  88              	.LVL4:
  89              	.L5:
 100:Generated_Source\PSoC4/AMux_1.c ****     }
 101:Generated_Source\PSoC4/AMux_1.c **** 
 102:Generated_Source\PSoC4/AMux_1.c ****     /* Make the new channel connection */
 103:Generated_Source\PSoC4/AMux_1.c **** #if (AMux_1_MUXTYPE == AMux_1_MUX_SINGLE)
 104:Generated_Source\PSoC4/AMux_1.c ****     AMux_1_Set(channel);
  90              		.loc 1 104 0
  91 0012 2800     		movs	r0, r5
  92 0014 FFF7FEFF 		bl	AMux_1_Set
  93              	.LVL5:
 105:Generated_Source\PSoC4/AMux_1.c **** #else
 106:Generated_Source\PSoC4/AMux_1.c ****     AMux_1_CYAMUXSIDE_A_Set(channel);
 107:Generated_Source\PSoC4/AMux_1.c ****     AMux_1_CYAMUXSIDE_B_Set(channel);
 108:Generated_Source\PSoC4/AMux_1.c **** #endif
 109:Generated_Source\PSoC4/AMux_1.c **** 
 110:Generated_Source\PSoC4/AMux_1.c **** 
 111:Generated_Source\PSoC4/AMux_1.c ****     AMux_1_lastChannel = channel;   /* Update last channel */
 112:Generated_Source\PSoC4/AMux_1.c **** }
  94              		.loc 1 112 0
  95              		@ sp needed
 111:Generated_Source\PSoC4/AMux_1.c **** }
  96              		.loc 1 111 0
  97 0018 2570     		strb	r5, [r4]
  98              		.loc 1 112 0
  99 001a 70BD     		pop	{r4, r5, r6, pc}
 100              	.L11:
 101              		.align	2
 102              	.L10:
 103 001c 00000000 		.word	.LANCHOR0
 104              		.cfi_endproc
 105              	.LFE1:
 106              		.size	AMux_1_FastSelect, .-AMux_1_FastSelect
 107              		.section	.text.AMux_1_DisconnectAll,"ax",%progbits
 108              		.align	1
 109              		.global	AMux_1_DisconnectAll
 110              		.code	16
 111              		.thumb_func
 112              		.type	AMux_1_DisconnectAll, %function
 113              	AMux_1_DisconnectAll:
ARM GAS  C:\Users\Zoltan\AppData\Local\Temp\cc5MtfR0.s 			page 5


 114              	.LFB2:
 113:Generated_Source\PSoC4/AMux_1.c **** 
 114:Generated_Source\PSoC4/AMux_1.c **** 
 115:Generated_Source\PSoC4/AMux_1.c **** #if (AMux_1_MUXTYPE == AMux_1_MUX_DIFF)
 116:Generated_Source\PSoC4/AMux_1.c **** #if (!AMux_1_ATMOSTONE)
 117:Generated_Source\PSoC4/AMux_1.c **** /*******************************************************************************
 118:Generated_Source\PSoC4/AMux_1.c **** * Function Name: AMux_1_Connect
 119:Generated_Source\PSoC4/AMux_1.c **** ********************************************************************************
 120:Generated_Source\PSoC4/AMux_1.c **** * Summary:
 121:Generated_Source\PSoC4/AMux_1.c **** *  This function connects the given channel without affecting other connections.
 122:Generated_Source\PSoC4/AMux_1.c **** *
 123:Generated_Source\PSoC4/AMux_1.c **** * Parameters:
 124:Generated_Source\PSoC4/AMux_1.c **** *  channel:  The channel to connect to the common terminal.
 125:Generated_Source\PSoC4/AMux_1.c **** *
 126:Generated_Source\PSoC4/AMux_1.c **** * Return:
 127:Generated_Source\PSoC4/AMux_1.c **** *  void
 128:Generated_Source\PSoC4/AMux_1.c **** *
 129:Generated_Source\PSoC4/AMux_1.c **** *******************************************************************************/
 130:Generated_Source\PSoC4/AMux_1.c **** void AMux_1_Connect(uint8 channel) 
 131:Generated_Source\PSoC4/AMux_1.c **** {
 132:Generated_Source\PSoC4/AMux_1.c ****     AMux_1_CYAMUXSIDE_A_Set(channel);
 133:Generated_Source\PSoC4/AMux_1.c ****     AMux_1_CYAMUXSIDE_B_Set(channel);
 134:Generated_Source\PSoC4/AMux_1.c **** }
 135:Generated_Source\PSoC4/AMux_1.c **** #endif
 136:Generated_Source\PSoC4/AMux_1.c **** 
 137:Generated_Source\PSoC4/AMux_1.c **** /*******************************************************************************
 138:Generated_Source\PSoC4/AMux_1.c **** * Function Name: AMux_1_Disconnect
 139:Generated_Source\PSoC4/AMux_1.c **** ********************************************************************************
 140:Generated_Source\PSoC4/AMux_1.c **** * Summary:
 141:Generated_Source\PSoC4/AMux_1.c **** *  This function disconnects the given channel from the common or output
 142:Generated_Source\PSoC4/AMux_1.c **** *  terminal without affecting other connections.
 143:Generated_Source\PSoC4/AMux_1.c **** *
 144:Generated_Source\PSoC4/AMux_1.c **** * Parameters:
 145:Generated_Source\PSoC4/AMux_1.c **** *  channel:  The channel to disconnect from the common terminal.
 146:Generated_Source\PSoC4/AMux_1.c **** *
 147:Generated_Source\PSoC4/AMux_1.c **** * Return:
 148:Generated_Source\PSoC4/AMux_1.c **** *  void
 149:Generated_Source\PSoC4/AMux_1.c **** *
 150:Generated_Source\PSoC4/AMux_1.c **** *******************************************************************************/
 151:Generated_Source\PSoC4/AMux_1.c **** void AMux_1_Disconnect(uint8 channel) 
 152:Generated_Source\PSoC4/AMux_1.c **** {
 153:Generated_Source\PSoC4/AMux_1.c ****     AMux_1_CYAMUXSIDE_A_Unset(channel);
 154:Generated_Source\PSoC4/AMux_1.c ****     AMux_1_CYAMUXSIDE_B_Unset(channel);
 155:Generated_Source\PSoC4/AMux_1.c **** }
 156:Generated_Source\PSoC4/AMux_1.c **** #endif
 157:Generated_Source\PSoC4/AMux_1.c **** 
 158:Generated_Source\PSoC4/AMux_1.c **** #if (AMux_1_ATMOSTONE)
 159:Generated_Source\PSoC4/AMux_1.c **** /*******************************************************************************
 160:Generated_Source\PSoC4/AMux_1.c **** * Function Name: AMux_1_DisconnectAll
 161:Generated_Source\PSoC4/AMux_1.c **** ********************************************************************************
 162:Generated_Source\PSoC4/AMux_1.c **** * Summary:
 163:Generated_Source\PSoC4/AMux_1.c **** *  This function disconnects all channels.
 164:Generated_Source\PSoC4/AMux_1.c **** *
 165:Generated_Source\PSoC4/AMux_1.c **** * Parameters:
 166:Generated_Source\PSoC4/AMux_1.c **** *  void
 167:Generated_Source\PSoC4/AMux_1.c **** *
 168:Generated_Source\PSoC4/AMux_1.c **** * Return:
ARM GAS  C:\Users\Zoltan\AppData\Local\Temp\cc5MtfR0.s 			page 6


 169:Generated_Source\PSoC4/AMux_1.c **** *  void
 170:Generated_Source\PSoC4/AMux_1.c **** *
 171:Generated_Source\PSoC4/AMux_1.c **** *******************************************************************************/
 172:Generated_Source\PSoC4/AMux_1.c **** void AMux_1_DisconnectAll(void) 
 173:Generated_Source\PSoC4/AMux_1.c **** {
 115              		.loc 1 173 0
 116              		.cfi_startproc
 117              		@ args = 0, pretend = 0, frame = 0
 118              		@ frame_needed = 0, uses_anonymous_args = 0
 119 0000 10B5     		push	{r4, lr}
 120              		.cfi_def_cfa_offset 8
 121              		.cfi_offset 4, -8
 122              		.cfi_offset 14, -4
 174:Generated_Source\PSoC4/AMux_1.c ****     if(AMux_1_lastChannel != AMux_1_NULL_CHANNEL) 
 123              		.loc 1 174 0
 124 0002 044C     		ldr	r4, .L17
 125 0004 2078     		ldrb	r0, [r4]
 126 0006 FF28     		cmp	r0, #255
 127 0008 03D0     		beq	.L12
 175:Generated_Source\PSoC4/AMux_1.c ****     {
 176:Generated_Source\PSoC4/AMux_1.c ****         AMux_1_Disconnect(AMux_1_lastChannel);
 128              		.loc 1 176 0
 129 000a FFF7FEFF 		bl	AMux_1_Unset
 130              	.LVL6:
 177:Generated_Source\PSoC4/AMux_1.c ****         AMux_1_lastChannel = AMux_1_NULL_CHANNEL;
 131              		.loc 1 177 0
 132 000e FF23     		movs	r3, #255
 133 0010 2370     		strb	r3, [r4]
 134              	.L12:
 178:Generated_Source\PSoC4/AMux_1.c ****     }
 179:Generated_Source\PSoC4/AMux_1.c **** }
 135              		.loc 1 179 0
 136              		@ sp needed
 137 0012 10BD     		pop	{r4, pc}
 138              	.L18:
 139              		.align	2
 140              	.L17:
 141 0014 00000000 		.word	.LANCHOR0
 142              		.cfi_endproc
 143              	.LFE2:
 144              		.size	AMux_1_DisconnectAll, .-AMux_1_DisconnectAll
 145              		.data
 146              		.set	.LANCHOR0,. + 0
 147              		.type	AMux_1_lastChannel, %object
 148              		.size	AMux_1_lastChannel, 1
 149              	AMux_1_lastChannel:
 150 0000 FF       		.byte	-1
 151              		.text
 152              	.Letext0:
 153              		.file 2 "Generated_Source\\PSoC4\\cyfitter_cfg.h"
 154              		.file 3 "Generated_Source\\PSoC4\\cytypes.h"
 155              		.section	.debug_info,"",%progbits
 156              	.Ldebug_info0:
 157 0000 41010000 		.4byte	0x141
 158 0004 0400     		.2byte	0x4
 159 0006 00000000 		.4byte	.Ldebug_abbrev0
 160 000a 04       		.byte	0x4
ARM GAS  C:\Users\Zoltan\AppData\Local\Temp\cc5MtfR0.s 			page 7


 161 000b 01       		.uleb128 0x1
 162 000c 78010000 		.4byte	.LASF19
 163 0010 0C       		.byte	0xc
 164 0011 78000000 		.4byte	.LASF20
 165 0015 15000000 		.4byte	.LASF21
 166 0019 00000000 		.4byte	.Ldebug_ranges0+0
 167 001d 00000000 		.4byte	0
 168 0021 00000000 		.4byte	.Ldebug_line0
 169 0025 02       		.uleb128 0x2
 170 0026 01       		.byte	0x1
 171 0027 06       		.byte	0x6
 172 0028 6C010000 		.4byte	.LASF0
 173 002c 02       		.uleb128 0x2
 174 002d 01       		.byte	0x1
 175 002e 08       		.byte	0x8
 176 002f 9E000000 		.4byte	.LASF1
 177 0033 02       		.uleb128 0x2
 178 0034 02       		.byte	0x2
 179 0035 05       		.byte	0x5
 180 0036 48010000 		.4byte	.LASF2
 181 003a 02       		.uleb128 0x2
 182 003b 02       		.byte	0x2
 183 003c 07       		.byte	0x7
 184 003d D0000000 		.4byte	.LASF3
 185 0041 02       		.uleb128 0x2
 186 0042 04       		.byte	0x4
 187 0043 05       		.byte	0x5
 188 0044 63010000 		.4byte	.LASF4
 189 0048 02       		.uleb128 0x2
 190 0049 04       		.byte	0x4
 191 004a 07       		.byte	0x7
 192 004b BE000000 		.4byte	.LASF5
 193 004f 02       		.uleb128 0x2
 194 0050 08       		.byte	0x8
 195 0051 05       		.byte	0x5
 196 0052 35010000 		.4byte	.LASF6
 197 0056 02       		.uleb128 0x2
 198 0057 08       		.byte	0x8
 199 0058 07       		.byte	0x7
 200 0059 19010000 		.4byte	.LASF7
 201 005d 03       		.uleb128 0x3
 202 005e 04       		.byte	0x4
 203 005f 05       		.byte	0x5
 204 0060 696E7400 		.ascii	"int\000"
 205 0064 02       		.uleb128 0x2
 206 0065 04       		.byte	0x4
 207 0066 07       		.byte	0x7
 208 0067 0C010000 		.4byte	.LASF8
 209 006b 04       		.uleb128 0x4
 210 006c 52010000 		.4byte	.LASF22
 211 0070 03       		.byte	0x3
 212 0071 B901     		.2byte	0x1b9
 213 0073 2C000000 		.4byte	0x2c
 214 0077 02       		.uleb128 0x2
 215 0078 04       		.byte	0x4
 216 0079 04       		.byte	0x4
 217 007a 98000000 		.4byte	.LASF9
ARM GAS  C:\Users\Zoltan\AppData\Local\Temp\cc5MtfR0.s 			page 8


 218 007e 02       		.uleb128 0x2
 219 007f 08       		.byte	0x8
 220 0080 04       		.byte	0x4
 221 0081 E3000000 		.4byte	.LASF10
 222 0085 02       		.uleb128 0x2
 223 0086 01       		.byte	0x1
 224 0087 08       		.byte	0x8
 225 0088 43010000 		.4byte	.LASF11
 226 008c 05       		.uleb128 0x5
 227 008d EA000000 		.4byte	.LASF12
 228 0091 01       		.byte	0x1
 229 0092 24       		.byte	0x24
 230 0093 00000000 		.4byte	.LFB0
 231 0097 14000000 		.4byte	.LFE0-.LFB0
 232 009b 01       		.uleb128 0x1
 233 009c 9C       		.byte	0x9c
 234 009d C0000000 		.4byte	0xc0
 235 00a1 06       		.uleb128 0x6
 236 00a2 30010000 		.4byte	.LASF15
 237 00a6 01       		.byte	0x1
 238 00a7 26       		.byte	0x26
 239 00a8 6B000000 		.4byte	0x6b
 240 00ac 00000000 		.4byte	.LLST0
 241 00b0 07       		.uleb128 0x7
 242 00b1 08000000 		.4byte	.LVL1
 243 00b5 2E010000 		.4byte	0x12e
 244 00b9 08       		.uleb128 0x8
 245 00ba 01       		.uleb128 0x1
 246 00bb 50       		.byte	0x50
 247 00bc 01       		.uleb128 0x1
 248 00bd 30       		.byte	0x30
 249 00be 00       		.byte	0
 250 00bf 00       		.byte	0
 251 00c0 05       		.uleb128 0x5
 252 00c1 AC000000 		.4byte	.LASF13
 253 00c5 01       		.byte	0x1
 254 00c6 5E       		.byte	0x5e
 255 00c7 00000000 		.4byte	.LFB1
 256 00cb 20000000 		.4byte	.LFE1-.LFB1
 257 00cf 01       		.uleb128 0x1
 258 00d0 9C       		.byte	0x9c
 259 00d1 FE000000 		.4byte	0xfe
 260 00d5 09       		.uleb128 0x9
 261 00d6 00000000 		.4byte	.LASF23
 262 00da 01       		.byte	0x1
 263 00db 5E       		.byte	0x5e
 264 00dc 6B000000 		.4byte	0x6b
 265 00e0 20000000 		.4byte	.LLST1
 266 00e4 0A       		.uleb128 0xa
 267 00e5 12000000 		.4byte	.LVL4
 268 00e9 2E010000 		.4byte	0x12e
 269 00ed 07       		.uleb128 0x7
 270 00ee 18000000 		.4byte	.LVL5
 271 00f2 39010000 		.4byte	0x139
 272 00f6 08       		.uleb128 0x8
 273 00f7 01       		.uleb128 0x1
 274 00f8 50       		.byte	0x50
ARM GAS  C:\Users\Zoltan\AppData\Local\Temp\cc5MtfR0.s 			page 9


 275 00f9 02       		.uleb128 0x2
 276 00fa 75       		.byte	0x75
 277 00fb 00       		.sleb128 0
 278 00fc 00       		.byte	0
 279 00fd 00       		.byte	0
 280 00fe 05       		.uleb128 0x5
 281 00ff F7000000 		.4byte	.LASF14
 282 0103 01       		.byte	0x1
 283 0104 AC       		.byte	0xac
 284 0105 00000000 		.4byte	.LFB2
 285 0109 18000000 		.4byte	.LFE2-.LFB2
 286 010d 01       		.uleb128 0x1
 287 010e 9C       		.byte	0x9c
 288 010f 1D010000 		.4byte	0x11d
 289 0113 0A       		.uleb128 0xa
 290 0114 0E000000 		.4byte	.LVL6
 291 0118 2E010000 		.4byte	0x12e
 292 011c 00       		.byte	0
 293 011d 0B       		.uleb128 0xb
 294 011e 06020000 		.4byte	.LASF16
 295 0122 01       		.byte	0x1
 296 0123 14       		.byte	0x14
 297 0124 6B000000 		.4byte	0x6b
 298 0128 05       		.uleb128 0x5
 299 0129 03       		.byte	0x3
 300 012a 00000000 		.4byte	AMux_1_lastChannel
 301 012e 0C       		.uleb128 0xc
 302 012f 08000000 		.4byte	.LASF17
 303 0133 08000000 		.4byte	.LASF17
 304 0137 02       		.byte	0x2
 305 0138 1D       		.byte	0x1d
 306 0139 0C       		.uleb128 0xc
 307 013a 58010000 		.4byte	.LASF18
 308 013e 58010000 		.4byte	.LASF18
 309 0142 02       		.byte	0x2
 310 0143 1C       		.byte	0x1c
 311 0144 00       		.byte	0
 312              		.section	.debug_abbrev,"",%progbits
 313              	.Ldebug_abbrev0:
 314 0000 01       		.uleb128 0x1
 315 0001 11       		.uleb128 0x11
 316 0002 01       		.byte	0x1
 317 0003 25       		.uleb128 0x25
 318 0004 0E       		.uleb128 0xe
 319 0005 13       		.uleb128 0x13
 320 0006 0B       		.uleb128 0xb
 321 0007 03       		.uleb128 0x3
 322 0008 0E       		.uleb128 0xe
 323 0009 1B       		.uleb128 0x1b
 324 000a 0E       		.uleb128 0xe
 325 000b 55       		.uleb128 0x55
 326 000c 17       		.uleb128 0x17
 327 000d 11       		.uleb128 0x11
 328 000e 01       		.uleb128 0x1
 329 000f 10       		.uleb128 0x10
 330 0010 17       		.uleb128 0x17
 331 0011 00       		.byte	0
ARM GAS  C:\Users\Zoltan\AppData\Local\Temp\cc5MtfR0.s 			page 10


 332 0012 00       		.byte	0
 333 0013 02       		.uleb128 0x2
 334 0014 24       		.uleb128 0x24
 335 0015 00       		.byte	0
 336 0016 0B       		.uleb128 0xb
 337 0017 0B       		.uleb128 0xb
 338 0018 3E       		.uleb128 0x3e
 339 0019 0B       		.uleb128 0xb
 340 001a 03       		.uleb128 0x3
 341 001b 0E       		.uleb128 0xe
 342 001c 00       		.byte	0
 343 001d 00       		.byte	0
 344 001e 03       		.uleb128 0x3
 345 001f 24       		.uleb128 0x24
 346 0020 00       		.byte	0
 347 0021 0B       		.uleb128 0xb
 348 0022 0B       		.uleb128 0xb
 349 0023 3E       		.uleb128 0x3e
 350 0024 0B       		.uleb128 0xb
 351 0025 03       		.uleb128 0x3
 352 0026 08       		.uleb128 0x8
 353 0027 00       		.byte	0
 354 0028 00       		.byte	0
 355 0029 04       		.uleb128 0x4
 356 002a 16       		.uleb128 0x16
 357 002b 00       		.byte	0
 358 002c 03       		.uleb128 0x3
 359 002d 0E       		.uleb128 0xe
 360 002e 3A       		.uleb128 0x3a
 361 002f 0B       		.uleb128 0xb
 362 0030 3B       		.uleb128 0x3b
 363 0031 05       		.uleb128 0x5
 364 0032 49       		.uleb128 0x49
 365 0033 13       		.uleb128 0x13
 366 0034 00       		.byte	0
 367 0035 00       		.byte	0
 368 0036 05       		.uleb128 0x5
 369 0037 2E       		.uleb128 0x2e
 370 0038 01       		.byte	0x1
 371 0039 3F       		.uleb128 0x3f
 372 003a 19       		.uleb128 0x19
 373 003b 03       		.uleb128 0x3
 374 003c 0E       		.uleb128 0xe
 375 003d 3A       		.uleb128 0x3a
 376 003e 0B       		.uleb128 0xb
 377 003f 3B       		.uleb128 0x3b
 378 0040 0B       		.uleb128 0xb
 379 0041 27       		.uleb128 0x27
 380 0042 19       		.uleb128 0x19
 381 0043 11       		.uleb128 0x11
 382 0044 01       		.uleb128 0x1
 383 0045 12       		.uleb128 0x12
 384 0046 06       		.uleb128 0x6
 385 0047 40       		.uleb128 0x40
 386 0048 18       		.uleb128 0x18
 387 0049 9742     		.uleb128 0x2117
 388 004b 19       		.uleb128 0x19
ARM GAS  C:\Users\Zoltan\AppData\Local\Temp\cc5MtfR0.s 			page 11


 389 004c 01       		.uleb128 0x1
 390 004d 13       		.uleb128 0x13
 391 004e 00       		.byte	0
 392 004f 00       		.byte	0
 393 0050 06       		.uleb128 0x6
 394 0051 34       		.uleb128 0x34
 395 0052 00       		.byte	0
 396 0053 03       		.uleb128 0x3
 397 0054 0E       		.uleb128 0xe
 398 0055 3A       		.uleb128 0x3a
 399 0056 0B       		.uleb128 0xb
 400 0057 3B       		.uleb128 0x3b
 401 0058 0B       		.uleb128 0xb
 402 0059 49       		.uleb128 0x49
 403 005a 13       		.uleb128 0x13
 404 005b 02       		.uleb128 0x2
 405 005c 17       		.uleb128 0x17
 406 005d 00       		.byte	0
 407 005e 00       		.byte	0
 408 005f 07       		.uleb128 0x7
 409 0060 898201   		.uleb128 0x4109
 410 0063 01       		.byte	0x1
 411 0064 11       		.uleb128 0x11
 412 0065 01       		.uleb128 0x1
 413 0066 31       		.uleb128 0x31
 414 0067 13       		.uleb128 0x13
 415 0068 00       		.byte	0
 416 0069 00       		.byte	0
 417 006a 08       		.uleb128 0x8
 418 006b 8A8201   		.uleb128 0x410a
 419 006e 00       		.byte	0
 420 006f 02       		.uleb128 0x2
 421 0070 18       		.uleb128 0x18
 422 0071 9142     		.uleb128 0x2111
 423 0073 18       		.uleb128 0x18
 424 0074 00       		.byte	0
 425 0075 00       		.byte	0
 426 0076 09       		.uleb128 0x9
 427 0077 05       		.uleb128 0x5
 428 0078 00       		.byte	0
 429 0079 03       		.uleb128 0x3
 430 007a 0E       		.uleb128 0xe
 431 007b 3A       		.uleb128 0x3a
 432 007c 0B       		.uleb128 0xb
 433 007d 3B       		.uleb128 0x3b
 434 007e 0B       		.uleb128 0xb
 435 007f 49       		.uleb128 0x49
 436 0080 13       		.uleb128 0x13
 437 0081 02       		.uleb128 0x2
 438 0082 17       		.uleb128 0x17
 439 0083 00       		.byte	0
 440 0084 00       		.byte	0
 441 0085 0A       		.uleb128 0xa
 442 0086 898201   		.uleb128 0x4109
 443 0089 00       		.byte	0
 444 008a 11       		.uleb128 0x11
 445 008b 01       		.uleb128 0x1
ARM GAS  C:\Users\Zoltan\AppData\Local\Temp\cc5MtfR0.s 			page 12


 446 008c 31       		.uleb128 0x31
 447 008d 13       		.uleb128 0x13
 448 008e 00       		.byte	0
 449 008f 00       		.byte	0
 450 0090 0B       		.uleb128 0xb
 451 0091 34       		.uleb128 0x34
 452 0092 00       		.byte	0
 453 0093 03       		.uleb128 0x3
 454 0094 0E       		.uleb128 0xe
 455 0095 3A       		.uleb128 0x3a
 456 0096 0B       		.uleb128 0xb
 457 0097 3B       		.uleb128 0x3b
 458 0098 0B       		.uleb128 0xb
 459 0099 49       		.uleb128 0x49
 460 009a 13       		.uleb128 0x13
 461 009b 02       		.uleb128 0x2
 462 009c 18       		.uleb128 0x18
 463 009d 00       		.byte	0
 464 009e 00       		.byte	0
 465 009f 0C       		.uleb128 0xc
 466 00a0 2E       		.uleb128 0x2e
 467 00a1 00       		.byte	0
 468 00a2 3F       		.uleb128 0x3f
 469 00a3 19       		.uleb128 0x19
 470 00a4 3C       		.uleb128 0x3c
 471 00a5 19       		.uleb128 0x19
 472 00a6 6E       		.uleb128 0x6e
 473 00a7 0E       		.uleb128 0xe
 474 00a8 03       		.uleb128 0x3
 475 00a9 0E       		.uleb128 0xe
 476 00aa 3A       		.uleb128 0x3a
 477 00ab 0B       		.uleb128 0xb
 478 00ac 3B       		.uleb128 0x3b
 479 00ad 0B       		.uleb128 0xb
 480 00ae 00       		.byte	0
 481 00af 00       		.byte	0
 482 00b0 00       		.byte	0
 483              		.section	.debug_loc,"",%progbits
 484              	.Ldebug_loc0:
 485              	.LLST0:
 486 0000 00000000 		.4byte	.LVL0
 487 0004 08000000 		.4byte	.LVL1
 488 0008 0200     		.2byte	0x2
 489 000a 30       		.byte	0x30
 490 000b 9F       		.byte	0x9f
 491 000c 08000000 		.4byte	.LVL1
 492 0010 14000000 		.4byte	.LFE0
 493 0014 0200     		.2byte	0x2
 494 0016 31       		.byte	0x31
 495 0017 9F       		.byte	0x9f
 496 0018 00000000 		.4byte	0
 497 001c 00000000 		.4byte	0
 498              	.LLST1:
 499 0020 00000000 		.4byte	.LVL2
 500 0024 08000000 		.4byte	.LVL3
 501 0028 0100     		.2byte	0x1
 502 002a 50       		.byte	0x50
ARM GAS  C:\Users\Zoltan\AppData\Local\Temp\cc5MtfR0.s 			page 13


 503 002b 08000000 		.4byte	.LVL3
 504 002f 20000000 		.4byte	.LFE1
 505 0033 0400     		.2byte	0x4
 506 0035 F3       		.byte	0xf3
 507 0036 01       		.uleb128 0x1
 508 0037 50       		.byte	0x50
 509 0038 9F       		.byte	0x9f
 510 0039 00000000 		.4byte	0
 511 003d 00000000 		.4byte	0
 512              		.section	.debug_aranges,"",%progbits
 513 0000 2C000000 		.4byte	0x2c
 514 0004 0200     		.2byte	0x2
 515 0006 00000000 		.4byte	.Ldebug_info0
 516 000a 04       		.byte	0x4
 517 000b 00       		.byte	0
 518 000c 0000     		.2byte	0
 519 000e 0000     		.2byte	0
 520 0010 00000000 		.4byte	.LFB0
 521 0014 14000000 		.4byte	.LFE0-.LFB0
 522 0018 00000000 		.4byte	.LFB1
 523 001c 20000000 		.4byte	.LFE1-.LFB1
 524 0020 00000000 		.4byte	.LFB2
 525 0024 18000000 		.4byte	.LFE2-.LFB2
 526 0028 00000000 		.4byte	0
 527 002c 00000000 		.4byte	0
 528              		.section	.debug_ranges,"",%progbits
 529              	.Ldebug_ranges0:
 530 0000 00000000 		.4byte	.LFB0
 531 0004 14000000 		.4byte	.LFE0
 532 0008 00000000 		.4byte	.LFB1
 533 000c 20000000 		.4byte	.LFE1
 534 0010 00000000 		.4byte	.LFB2
 535 0014 18000000 		.4byte	.LFE2
 536 0018 00000000 		.4byte	0
 537 001c 00000000 		.4byte	0
 538              		.section	.debug_line,"",%progbits
 539              	.Ldebug_line0:
 540 0000 9B000000 		.section	.debug_str,"MS",%progbits,1
 540      02005500 
 540      00000201 
 540      FB0E0D00 
 540      01010101 
 541              	.LASF23:
 542 0000 6368616E 		.ascii	"channel\000"
 542      6E656C00 
 543              	.LASF17:
 544 0008 414D7578 		.ascii	"AMux_1_Unset\000"
 544      5F315F55 
 544      6E736574 
 544      00
 545              	.LASF21:
 546 0015 433A5C55 		.ascii	"C:\\Users\\Zoltan\\Desktop\\Workspace_KWJ_01_7e.cyw"
 546      73657273 
 546      5C5A6F6C 
 546      74616E5C 
 546      4465736B 
 547 0044 726B2E41 		.ascii	"rk.Archive03\\Workspace_KWJ_01_6e\\KWJ_CO_01_6e.cyd"
ARM GAS  C:\Users\Zoltan\AppData\Local\Temp\cc5MtfR0.s 			page 14


 547      72636869 
 547      76653033 
 547      5C576F72 
 547      6B737061 
 548 0075 736E00   		.ascii	"sn\000"
 549              	.LASF20:
 550 0078 47656E65 		.ascii	"Generated_Source\\PSoC4\\AMux_1.c\000"
 550      72617465 
 550      645F536F 
 550      75726365 
 550      5C50536F 
 551              	.LASF9:
 552 0098 666C6F61 		.ascii	"float\000"
 552      7400
 553              	.LASF1:
 554 009e 756E7369 		.ascii	"unsigned char\000"
 554      676E6564 
 554      20636861 
 554      7200
 555              	.LASF13:
 556 00ac 414D7578 		.ascii	"AMux_1_FastSelect\000"
 556      5F315F46 
 556      61737453 
 556      656C6563 
 556      7400
 557              	.LASF5:
 558 00be 6C6F6E67 		.ascii	"long unsigned int\000"
 558      20756E73 
 558      69676E65 
 558      6420696E 
 558      7400
 559              	.LASF3:
 560 00d0 73686F72 		.ascii	"short unsigned int\000"
 560      7420756E 
 560      7369676E 
 560      65642069 
 560      6E7400
 561              	.LASF10:
 562 00e3 646F7562 		.ascii	"double\000"
 562      6C6500
 563              	.LASF12:
 564 00ea 414D7578 		.ascii	"AMux_1_Start\000"
 564      5F315F53 
 564      74617274 
 564      00
 565              	.LASF14:
 566 00f7 414D7578 		.ascii	"AMux_1_DisconnectAll\000"
 566      5F315F44 
 566      6973636F 
 566      6E6E6563 
 566      74416C6C 
 567              	.LASF8:
 568 010c 756E7369 		.ascii	"unsigned int\000"
 568      676E6564 
 568      20696E74 
 568      00
 569              	.LASF7:
ARM GAS  C:\Users\Zoltan\AppData\Local\Temp\cc5MtfR0.s 			page 15


 570 0119 6C6F6E67 		.ascii	"long long unsigned int\000"
 570      206C6F6E 
 570      6720756E 
 570      7369676E 
 570      65642069 
 571              	.LASF15:
 572 0130 6368616E 		.ascii	"chan\000"
 572      00
 573              	.LASF6:
 574 0135 6C6F6E67 		.ascii	"long long int\000"
 574      206C6F6E 
 574      6720696E 
 574      7400
 575              	.LASF11:
 576 0143 63686172 		.ascii	"char\000"
 576      00
 577              	.LASF2:
 578 0148 73686F72 		.ascii	"short int\000"
 578      7420696E 
 578      7400
 579              	.LASF22:
 580 0152 75696E74 		.ascii	"uint8\000"
 580      3800
 581              	.LASF18:
 582 0158 414D7578 		.ascii	"AMux_1_Set\000"
 582      5F315F53 
 582      657400
 583              	.LASF4:
 584 0163 6C6F6E67 		.ascii	"long int\000"
 584      20696E74 
 584      00
 585              	.LASF0:
 586 016c 7369676E 		.ascii	"signed char\000"
 586      65642063 
 586      68617200 
 587              	.LASF19:
 588 0178 474E5520 		.ascii	"GNU C11 5.4.1 20160609 (release) [ARM/embedded-5-br"
 588      43313120 
 588      352E342E 
 588      31203230 
 588      31363036 
 589 01ab 616E6368 		.ascii	"anch revision 237715] -mcpu=cortex-m0 -mthumb -g -O"
 589      20726576 
 589      6973696F 
 589      6E203233 
 589      37373135 
 590 01de 73202D66 		.ascii	"s -ffunction-sections -ffat-lto-objects\000"
 590      66756E63 
 590      74696F6E 
 590      2D736563 
 590      74696F6E 
 591              	.LASF16:
 592 0206 414D7578 		.ascii	"AMux_1_lastChannel\000"
 592      5F315F6C 
 592      61737443 
 592      68616E6E 
 592      656C00
ARM GAS  C:\Users\Zoltan\AppData\Local\Temp\cc5MtfR0.s 			page 16


 593              		.ident	"GCC: (GNU Tools for ARM Embedded Processors) 5.4.1 20160609 (release) [ARM/embedded-5-bran
